<?xml version="1.0" encoding="UTF-8" standalone="no"?>
<svg width="394px" height="266px" viewBox="0 0 394 266" version="1.1" xmlns="http://www.w3.org/2000/svg" xmlns:xlink="http://www.w3.org/1999/xlink">
    <!-- Generator: Sketch 3.7.2 (28276) - http://www.bohemiancoding.com/sketch -->
    <title>Group 2</title>
    <desc>Created with Sketch.</desc>
    <defs></defs>
    <g id="Page-5" stroke="none" stroke-width="1" fill="none" fill-rule="evenodd">
        <g id="Group-3" transform="translate(-59.000000, -47.000000)" fill="#71BEB1">
            <g id="Group-2" transform="translate(59.000000, 47.000000)">
                <path d="M393.991063,153.546373 C378.165743,66.4012992 296.160408,0 197.375,0 C98.4578125,0 16.3654961,66.5785762 0.695957796,153.895239 L35.4978137,165.878479 C45.4849514,92.8080708 114.202667,36.25 197.488281,36.25 C280.856909,36.25 349.628583,92.9208732 359.508437,166.097023 L393.991063,153.546373 Z" id="Combined-Shape"></path>
                <rect id="Rectangle-5" x="191.333333" y="21.1458333" width="12.0833333" height="60.4166667"></rect>
                <rect id="Rectangle-5" transform="translate(314.491831, 94.182320) rotate(-308.000000) translate(-314.491831, -94.182320) " x="308.450164" y="63.9739871" width="12.0833333" height="60.4166667"></rect>
                <rect id="Rectangle-5" transform="translate(80.258169, 94.182320) scale(1, -1) rotate(-309.000000) translate(-80.258169, -94.182320) " x="74.2165027" y="63.9739871" width="12.0833333" height="60.4166667"></rect>
                <rect id="Rectangle-5" transform="translate(265.343750, 51.354167) rotate(-333.000000) translate(-265.343750, -51.354167) " x="260.8125" y="21.1458333" width="9.0625" height="60.4166667"></rect>
                <rect id="Rectangle-5" transform="translate(129.406250, 51.354167) scale(1, -1) rotate(-333.000000) translate(-129.406250, -51.354167) " x="124.875" y="21.1458333" width="9.0625" height="60.4166667"></rect>
                <g id="Group" transform="translate(174.597749, 193.194404) rotate(-42.000000) translate(-174.597749, -193.194404) translate(127.597749, 110.194404)">
                    <polygon id="Rectangle-4" points="27.98425 18.1245013 70.2759167 18.1245013 79.3384167 129.895335 18.92175 129.895335"></polygon>
                    <ellipse id="Oval-3" cx="49.1300833" cy="22.6557513" rx="21.1458333" ry="22.65625"></ellipse>
                    <ellipse id="Oval-3" transform="translate(46.885167, 118.811503) rotate(-358.000000) translate(-46.885167, -118.811503) " cx="46.8851667" cy="118.811503" rx="45.3125" ry="45.3125"></ellipse>
                </g>
                <rect id="Rectangle-5" transform="translate(351.064170, 143.764633) rotate(-287.000000) translate(-351.064170, -143.764633) " x="346.53292" y="113.5563" width="9.0625" height="60.4166667"></rect>
                <rect id="Rectangle-5" transform="translate(42.939170, 143.764633) scale(1, -1) rotate(-287.000000) translate(-42.939170, -143.764633) " x="38.4079197" y="113.5563" width="9.0625" height="60.4166667"></rect>
            </g>
        </g>
    </g>
</svg>